\boolfalse {citerequest}\boolfalse {citetracker}\boolfalse {pagetracker}\boolfalse {backtracker}\relax 
\defcounter {refsection}{0}\relax 
\select@language {spanish}
\defcounter {refsection}{0}\relax 
\contentsline {chapter}{Introducci\IeC {\'o}n}{\es@scroman {v}}{chapter*.3}
\defcounter {refsection}{0}\relax 
\contentsline {chapter}{\numberline {1}Desarrollo}{1}{chapter.1}
\defcounter {refsection}{0}\relax 
\contentsline {section}{\numberline {1.1}Problem\IeC {\'a}tica}{1}{section.1.1}
\defcounter {refsection}{0}\relax 
\contentsline {section}{\numberline {1.2}Propuesta de Soluci\IeC {\'o}n}{1}{section.1.2}
\defcounter {refsection}{0}\relax 
\contentsline {section}{\numberline {1.3}Algoritmos}{4}{section.1.3}
\defcounter {refsection}{0}\relax 
\contentsline {section}{\numberline {1.4}C\IeC {\'o}digo Fuente}{4}{section.1.4}
\defcounter {refsection}{0}\relax 
\contentsline {chapter}{\numberline {2}Pruebas}{21}{chapter.2}
\defcounter {refsection}{0}\relax 
\contentsline {section}{\numberline {2.1}IU01 Seleccionar Dificultad}{21}{section.2.1}
\defcounter {refsection}{0}\relax 
\contentsline {section}{\numberline {2.2}IU02 Tablero}{21}{section.2.2}
\defcounter {refsection}{0}\relax 
\contentsline {chapter}{\numberline {3}Conclusiones}{23}{chapter.3}
\defcounter {refsection}{0}\relax 
\contentsline {section}{\numberline {3.1}Cedillo V\IeC {\'a}zquez Eliot Uriel}{23}{section.3.1}
\defcounter {refsection}{0}\relax 
\contentsline {section}{\numberline {3.2}Mart\IeC {\'\i }nez Calder\IeC {\'o}n Fernando Alonso}{23}{section.3.2}
\defcounter {refsection}{0}\relax 
\contentsline {section}{\numberline {3.3}Mera Torres Francisco Isidoro}{23}{section.3.3}
